# load_acs_vars works

    Code
      vars_data
    Output
      # A tibble: 28,152 x 13
         variable    table_id label   concept geography table_title simple_table_title
         <chr>       <chr>    <chr>   <chr>   <ord>     <chr>       <chr>             
       1 B01001A_001 B01001A  Estima~ Sex by~ <NA>      Sex by Age~ Sex by Age (White~
       2 B01001A_002 B01001A  Estima~ Sex by~ <NA>      Sex by Age~ Sex by Age (White~
       3 B01001A_003 B01001A  Estima~ Sex by~ <NA>      Sex by Age~ Sex by Age (White~
       4 B01001A_004 B01001A  Estima~ Sex by~ <NA>      Sex by Age~ Sex by Age (White~
       5 B01001A_005 B01001A  Estima~ Sex by~ <NA>      Sex by Age~ Sex by Age (White~
       6 B01001A_006 B01001A  Estima~ Sex by~ <NA>      Sex by Age~ Sex by Age (White~
       7 B01001A_007 B01001A  Estima~ Sex by~ <NA>      Sex by Age~ Sex by Age (White~
       8 B01001A_008 B01001A  Estima~ Sex by~ <NA>      Sex by Age~ Sex by Age (White~
       9 B01001A_009 B01001A  Estima~ Sex by~ <NA>      Sex by Age~ Sex by Age (White~
      10 B01001A_010 B01001A  Estima~ Sex by~ <NA>      Sex by Age~ Sex by Age (White~
      # i 28,142 more rows
      # i 6 more variables: subject_area <chr>, universe <chr>,
      #   denominator_column_id <chr>, topics <chr>, race_iteration_code <chr>,
      #   race_iteration_group <chr>
